<svg xmlns="http://www.w3.org/2000/svg" width="9.41" height="14.82" viewBox="0 0 9.41 14.82">
  <path id="Tracé_424" data-name="Tracé 424" d="M0,0,6,7l6-7" transform="translate(1.41 13.41) rotate(-90)" fill="none" stroke="#4d4f55" stroke-linecap="round" stroke-linejoin="round" stroke-width="2"/>
</svg>

