<svg id="luggage" xmlns="http://www.w3.org/2000/svg" width="59.387" height="62.568" viewBox="0 0 59.387 62.568">
                                    <g id="Groupe_64" data-name="Groupe 64" transform="translate(14.843 15.907)">
                                      <path id="Tracé_224" data-name="Tracé 224" d="M136.595,169.183h4.242v-2.51a.672.672,0,0,0-.671-.671h-2.9a.672.672,0,0,0-.671.671v2.51Zm5.3,2.121h-6.363a1.061,1.061,0,0,1-1.06-1.06v-3.571a2.8,2.8,0,0,1,2.792-2.792h2.9a2.8,2.8,0,0,1,2.792,2.792v3.571a1.061,1.061,0,0,1-1.06,1.06Z" transform="translate(-134.474 -159.639)" fill="#d6d9db"/>
                                      <path id="Tracé_225" data-name="Tracé 225" d="M301.476,139.774h6.363V131.29h-6.363Zm7.423,2.121h-8.484a1.061,1.061,0,0,1-1.06-1.06v-10.6a1.061,1.061,0,0,1,1.06-1.06H308.9a1.06,1.06,0,0,1,1.06,1.06v10.6a1.06,1.06,0,0,1-1.06,1.06Z" transform="translate(-279.206 -129.169)" fill="#d6d9db"/>
                                      <path id="Tracé_226" data-name="Tracé 226" d="M295.785,131.29H283.06a1.06,1.06,0,1,1,0-2.121h12.726a1.06,1.06,0,1,1,0,2.121" transform="translate(-263.971 -129.169)" fill="#d6d9db"/>
                                    </g>
                                    <path id="Tracé_227" data-name="Tracé 227" d="M280.55,215.949H267.709a3.065,3.065,0,0,0-3.066,3.066v10.72h4.242v15.907h11.781a3.065,3.065,0,0,0,3.066-3.066V219.13a3.181,3.181,0,0,0-3.181-3.181" transform="translate(-233.893 -189.437)" fill="#ce9865"/>
                                    <path id="Tracé_228" data-name="Tracé 228" d="M91.084,344.67h25.452V328.763H91.084Z" transform="translate(-81.544 -288.465)" fill="#86573e"/>
                                    <g id="Groupe_65" data-name="Groupe 65" transform="translate(9.54 40.298)">
                                      <path id="Tracé_229" data-name="Tracé 229" d="M91.084,334.065h0v-5.3h5.3a5.3,5.3,0,0,1-5.3,5.3" transform="translate(-91.084 -328.763)" fill="#573728"/>
                                      <path id="Tracé_230" data-name="Tracé 230" d="M255.965,328.763h5.3v5.3a5.3,5.3,0,0,1-5.3-5.3" transform="translate(-235.816 -328.763)" fill="#573728"/>
                                      <path id="Tracé_231" data-name="Tracé 231" d="M261.267,415.542h0v5.3h-5.3a5.3,5.3,0,0,1,5.3-5.3" transform="translate(-235.816 -404.937)" fill="#573728"/>
                                      <path id="Tracé_232" data-name="Tracé 232" d="M96.386,420.844h-5.3v-5.3a5.3,5.3,0,0,1,5.3,5.3" transform="translate(-91.084 -404.937)" fill="#573728"/>
                                    </g>
                                    <path id="Tracé_233" data-name="Tracé 233" d="M123.85,222.118H109.082l2.043-14.847h10.6Z" transform="translate(-97.342 -181.82)" fill="#5e5d58"/>
                                    <g id="Groupe_66" data-name="Groupe 66" transform="translate(13.782 25.452)">
                                      <path id="Tracé_234" data-name="Tracé 234" d="M133.219,212.573h-4.242l-3.181-5.3h10.6Z" transform="translate(-125.796 -207.271)" fill="#ffd06c"/>
                                      <path id="Tracé_235" data-name="Tracé 235" d="M299.355,254.9h10.6v-4.242h-10.6Z" transform="translate(-278.145 -245.359)" fill="#ffd06c"/>
                                    </g>
                                    <g id="Groupe_67" data-name="Groupe 67" transform="translate(7.423 56.205)">
                                      <path id="Tracé_236" data-name="Tracé 236" d="M80.126,462.113a3.181,3.181,0,1,0-3.181,3.181,3.181,3.181,0,0,0,3.181-3.181" transform="translate(-73.763 -458.932)" fill="#7f8c8d"/>
                                      <path id="Tracé_237" data-name="Tracé 237" d="M392.532,462.113a3.181,3.181,0,1,0-3.181,3.181,3.181,3.181,0,0,0,3.181-3.181" transform="translate(-347.992 -458.932)" fill="#7f8c8d"/>
                                    </g>
                                    <g id="Groupe_68" data-name="Groupe 68" transform="translate(4.242)">
                                      <path id="Tracé_238" data-name="Tracé 238" d="M98.632,117.205h-50.9v-35A13.8,13.8,0,0,1,61.515,68.423H84.846A13.8,13.8,0,0,1,98.632,82.209v35ZM49.85,115.084H96.511V82.209A11.679,11.679,0,0,0,84.846,70.544H61.515A11.679,11.679,0,0,0,49.85,82.209v32.875Z" transform="translate(-47.729 -59.939)" fill="#667d8c"/>
                                      <path id="Tracé_239" data-name="Tracé 239" d="M203.544,40.075H186.576V35.837a2.128,2.128,0,0,1,2.125-2.125h12.717a2.128,2.128,0,0,1,2.125,2.125ZM188.7,37.954h12.725V35.837l-12.722,0Z" transform="translate(-169.608 -29.47)" fill="#667d8c"/>
                                      <path id="Tracé_240" data-name="Tracé 240" d="M229.772,5.363h-8.484V3.242a4.242,4.242,0,1,1,8.484,0Zm-6.363-2.121h4.242a2.121,2.121,0,1,0-4.242,0Z" transform="translate(-200.078 1)" fill="#667d8c"/>
                                    </g>
                                    <path id="Tracé_241" data-name="Tracé 241" d="M71.343,452.375H14.077a1.06,1.06,0,0,1,0-2.121H71.343a1.06,1.06,0,1,1,0,2.121" transform="translate(-13.017 -395.109)" fill="#cbb292"/>
                                  </svg>