<svg xmlns="http://www.w3.org/2000/svg" width="23.458" height="23.458" viewBox="0 0 23.458 23.458">
  <path id="Tracé_1610" data-name="Tracé 1610" d="M23.458,2.346,21.112,0,11.729,9.383,2.346,0,0,2.346l9.383,9.383L0,21.112l2.346,2.346,9.383-9.383,9.383,9.383,2.346-2.346-9.383-9.383Z" fill="#020202"/>
</svg>
