<svg id="Groupe_24" data-name="Groupe 24" xmlns="http://www.w3.org/2000/svg" width="20.957" height="26.172" viewBox="0 0 20.957 26.172">
  <path id="Tracé_65" data-name="Tracé 65" d="M62.886,85.4H50.719a2.07,2.07,0,0,0-2.069,2.069v17.457a2.07,2.07,0,0,0,2.069,2.069H62.886a2.07,2.07,0,0,0,2.069-2.069V87.469A2.077,2.077,0,0,0,62.886,85.4Zm.616,19.521a.622.622,0,0,1-.622.622H50.714a.622.622,0,0,1-.622-.622V87.469a.622.622,0,0,1,.622-.622H62.88a.622.622,0,0,1,.622.622Z" transform="translate(-48.65 -80.823)" fill="#f05680"/>
  <path id="Tracé_66" data-name="Tracé 66" d="M149.686,0H137.519a2.07,2.07,0,0,0-2.069,2.069.724.724,0,0,0,1.447,0,.622.622,0,0,1,.622-.622h12.167a.622.622,0,0,1,.622.622V19.526a.622.622,0,0,1-.622.622.724.724,0,1,0,0,1.447,2.07,2.07,0,0,0,2.069-2.069V2.069A2.07,2.07,0,0,0,149.686,0Z" transform="translate(-130.798)" fill="#f05680"/>
</svg>
