<svg xmlns="http://www.w3.org/2000/svg" width="47.155" height="42.439" viewBox="0 0 47.155 42.439">
  <path id="diagram" d="M41.654,32.865V23.434H24.363V15.575h5.5V3H17.29V15.575h5.5v7.859H5.5v9.431H0V45.439H12.575V32.865h-5.5V25.006H22.792v7.859h-5.5V45.439H29.865V32.865h-5.5V25.006H40.082v7.859h-5.5V45.439H47.155V32.865ZM18.862,4.572h9.431V14H18.862ZM11,43.868H1.572V34.437H11Zm17.29,0H18.862V34.437h9.431Zm17.29,0H36.152V34.437h9.431Z" transform="translate(0 -3)" fill="#88ce36"/>
</svg>
