<svg id="id-card" xmlns="http://www.w3.org/2000/svg" width="67.067" height="57.817" viewBox="0 0 67.067 57.817">
  <path id="Tracé_270" data-name="Tracé 270" d="M40.472,14v5.42a1.518,1.518,0,0,1-1.518,1.518H28.113A1.518,1.518,0,0,1,26.6,19.42V14H4.253A4.253,4.253,0,0,0,0,18.253V56a4.253,4.253,0,0,0,4.253,4.253H62.814A4.253,4.253,0,0,0,67.067,56V18.253A4.253,4.253,0,0,0,62.814,14Z" transform="translate(0 -2.437)" fill="#e7eced"/>
  <path id="Tracé_271" data-name="Tracé 271" d="M35.358,4H24.517A1.518,1.518,0,0,0,23,5.518V20.984A1.518,1.518,0,0,0,24.518,22.5H35.359a1.518,1.518,0,0,0,1.517-1.518V5.518A1.518,1.518,0,0,0,35.358,4Zm-5.42,10.407a3.469,3.469,0,1,1,3.469-3.469A3.469,3.469,0,0,1,29.938,14.407Z" transform="translate(3.596 -4)" fill="#424a60"/>
  <path id="Tracé_272" data-name="Tracé 272" d="M24.716,45.307l-4.356-2.225a.891.891,0,0,1-.485-.792V40.957a7.318,7.318,0,0,0,4.145-5.175,2.313,2.313,0,0,0,1.636-2.2V32.427a2.31,2.31,0,0,0-1.247-2.039c-.51-4.349-3.385-6.109-8-6.109-.219,0-.434.008-.644.025A6.943,6.943,0,0,1,11.3,23.254,5.793,5.793,0,0,1,9.975,22.09a.231.231,0,0,0-.413.168c.046.4.116.877.217,1.392.382,1.92.154,1.64-.589,3.451a11.945,11.945,0,0,0-.8,3.29,2.317,2.317,0,0,0-1.237,2.036v1.156a2.313,2.313,0,0,0,1.636,2.2,7.317,7.317,0,0,0,4.145,5.175v1.324a.889.889,0,0,1-.5.8l-4.465,2.2A3.794,3.794,0,0,0,6,48.607V50.14c0,1.307,4.659,1.945,10.407,1.945s10.407-.638,10.407-1.945V48.7A3.794,3.794,0,0,0,24.716,45.307Z" transform="translate(0.938 -1.186)" fill="#26b99a"/>
  <g id="Groupe_74" data-name="Groupe 74" transform="translate(33.534 25.46)">
    <path id="Tracé_273" data-name="Tracé 273" d="M51.335,43.333a1.208,1.208,0,0,0-.335.821,1.164,1.164,0,0,0,.335.821,1.161,1.161,0,1,0,0-1.642Z" transform="translate(-25.561 -23.361)" fill="#afb6bb"/>
    <path id="Tracé_274" data-name="Tracé 274" d="M30.156,28.331H41.72a1.156,1.156,0,1,0,0-2.313H30.156a1.156,1.156,0,1,0,0,2.313Z" transform="translate(-29 -26.018)" fill="#afb6bb"/>
    <path id="Tracé_275" data-name="Tracé 275" d="M31.313,43.018H30.156a1.156,1.156,0,1,0,0,2.313h1.156a1.156,1.156,0,1,0,0-2.313Z" transform="translate(-29 -23.36)" fill="#afb6bb"/>
    <path id="Tracé_276" data-name="Tracé 276" d="M37.469,43.018H35.156a1.156,1.156,0,1,0,0,2.313h2.313a1.156,1.156,0,1,0,0-2.313Z" transform="translate(-28.218 -23.36)" fill="#afb6bb"/>
    <path id="Tracé_277" data-name="Tracé 277" d="M42.313,43.018H41.156a1.156,1.156,0,1,0,0,2.313h1.156a1.156,1.156,0,1,0,0-2.313Z" transform="translate(-27.28 -23.36)" fill="#afb6bb"/>
    <path id="Tracé_278" data-name="Tracé 278" d="M48.469,43.018H46.156a1.156,1.156,0,0,0,0,2.313h2.313a1.156,1.156,0,1,0,0-2.313Z" transform="translate(-26.499 -23.36)" fill="#afb6bb"/>
    <path id="Tracé_279" data-name="Tracé 279" d="M30.156,34.331H55.6a1.156,1.156,0,1,0,0-2.313H30.156a1.156,1.156,0,1,0,0,2.313Z" transform="translate(-29 -25.08)" fill="#afb6bb"/>
    <path id="Tracé_280" data-name="Tracé 280" d="M55.6,38.018H30.156a1.156,1.156,0,0,0,0,2.313H55.6a1.156,1.156,0,0,0,0-2.313Z" transform="translate(-29 -24.142)" fill="#afb6bb"/>
  </g>
</svg>
