<svg xmlns="http://www.w3.org/2000/svg" width="21.389" height="15.155" viewBox="0 0 21.389 15.155">
  <g id="bed" transform="translate(0 0)">
    <g id="Layer_2_25_">
      <g id="Groupe_61" data-name="Groupe 61">
        <path id="Tracé_193" data-name="Tracé 193" d="M42.707,160.513a1,1,0,0,0,.772-.971v-.1a1,1,0,0,0-1-1H39.765a1,1,0,0,0-1,1v.1a1,1,0,0,0,.772.971H25.056v1.968h18.8v-1.968Z" transform="translate(-23.712 -153.067)" fill="#f8b483"/>
        <path id="Tracé_194" data-name="Tracé 194" d="M20.765,58.13H12.492a.625.625,0,0,0-.625.625s0,.009,0,.013,0,.009,0,.013v2.375h.6V59.378H20.14v8.166H1.344V61.891a.672.672,0,1,0-1.344,0V72.613a.672.672,0,0,0,1.344,0V68.9h18.8V72.66a.625.625,0,0,0,1.249,0V58.754A.624.624,0,0,0,20.765,58.13Z" transform="translate(0 -58.13)" fill="#49535a"/>
        <path id="Tracé_195" data-name="Tracé 195" d="M205.846,114.569a.706.706,0,0,0,0,1.412h.831a.706.706,0,1,0,0-1.412h-.831Z" transform="translate(-194.139 -111.542)" fill="#f8b483"/>
        <path id="Tracé_196" data-name="Tracé 196" d="M86.462,64.368h.959v.959a.6.6,0,0,0,.6.6h.4a.6.6,0,0,0,.6-.6v-.959h.959a.6.6,0,0,0,.6-.6v-.4a.6.6,0,0,0-.6-.6h-.959V61.8a.6.6,0,0,0-.6-.6h-.4a.6.6,0,0,0-.6.6v.959h-.959a.6.6,0,0,0-.6.6v.4A.6.6,0,0,0,86.462,64.368Z" transform="translate(-81.254 -61.028)" fill="#d43d21"/>
      </g>
    </g>
  </g>
</svg>