<svg xmlns="http://www.w3.org/2000/svg" width="79.007" height="44.422" viewBox="0 0 79.007 44.422">
  <g id="Icon" transform="translate(0)">
    <path id="Tracé_281" data-name="Tracé 281" d="M4.973,29H77.634a3.142,3.142,0,0,1,3.173,3.173V70.249a3.142,3.142,0,0,1-3.173,3.173H4.973A3.142,3.142,0,0,1,1.8,70.249V32.173A3.182,3.182,0,0,1,4.973,29Z" transform="translate(-1.8 -29)" fill="#e7eef5"/>
    <circle id="Ellipse_52" data-name="Ellipse 52" cx="15.484" cy="15.484" r="15.484" transform="translate(6.854 6.727)" fill="#40b4f9"/>
    <path id="Tracé_283" data-name="Tracé 283" d="M31.482,39.7A15.393,15.393,0,0,0,21.9,43,15.482,15.482,0,0,1,38.971,68.7a15.456,15.456,0,0,0-7.488-29Z" transform="translate(-9.145 -32.91)" fill="#0097f1"/>
    <path id="Tracé_284" data-name="Tracé 284" d="M26.731,67.388l-5.331,4a15.442,15.442,0,0,0,19.863,0l-5.331-4-.254-1.079a2.754,2.754,0,0,1,.762-2.538,7.106,7.106,0,0,0-.127-10.027,7.113,7.113,0,0,0-10.09,10.027,2.874,2.874,0,0,1,.762,2.538Z" transform="translate(-8.962 -37.308)" fill="#5a6571"/>
    <path id="Tracé_285" data-name="Tracé 285" d="M32.917,53.205a7.083,7.083,0,0,1,6.219,7.869A7.2,7.2,0,0,1,37.169,65.2a2.874,2.874,0,0,0-.762,2.538l.254,1.079,5.331,4a1.328,1.328,0,0,1-.381.254,16.79,16.79,0,0,0,2.475-1.65l-5.331-4L38.5,66.341a2.754,2.754,0,0,1,.762-2.538A7.069,7.069,0,0,0,29.3,53.776,7.034,7.034,0,0,1,32.917,53.205Z" transform="translate(-11.849 -37.34)" fill="#49545b"/>
    <g id="Txt" transform="translate(47.042 13.09)">
      <path id="Tracé_289" data-name="Tracé 289" d="M73.982,40.085h17.5c.434,0,.782-.508.782-1.142s-.347-1.142-.782-1.142h-17.5c-.434,0-.782.508-.782,1.142S73.547,40.085,73.982,40.085Z" transform="translate(-73.2 -37.8)" fill="#342708"/>
      <path id="Tracé_290" data-name="Tracé 290" d="M73.982,52.285h17.5c.434,0,.782-.508.782-1.142S91.915,50,91.481,50h-17.5c-.434,0-.782.508-.782,1.142S73.547,52.285,73.982,52.285Z" transform="translate(-73.2 -44.492)" fill="#342708"/>
      <path id="Tracé_291" data-name="Tracé 291" d="M73.982,64.485h17.5c.434,0,.782-.508.782-1.142s-.347-1.142-.782-1.142h-17.5c-.434,0-.782.508-.782,1.142S73.547,64.485,73.982,64.485Z" transform="translate(-73.2 -51.184)" fill="#342708"/>
      <path id="Tracé_293" data-name="Tracé 293" d="M74.17,88.785H85A1.158,1.158,0,0,0,85,86.5H74.17a1.158,1.158,0,0,0,0,2.285Z" transform="translate(-73.2 -69.69)" fill="#342708"/>
    </g>
  </g>
</svg>
