 <svg id="time_1_" data-name="time (1)" xmlns="http://www.w3.org/2000/svg" width="47.621" height="47.621" viewBox="0 0 47.621 47.621">
                                        <path id="Tracé_328" data-name="Tracé 328" d="M23.811,0A23.811,23.811,0,1,0,47.621,23.811,23.838,23.838,0,0,0,23.811,0Zm0,46.034A22.223,22.223,0,1,1,46.034,23.811,22.249,22.249,0,0,1,23.811,46.034Z" fill="#88ce36"/>
                                        <path id="Tracé_329" data-name="Tracé 329" d="M28.318,23.722v-8.05a.794.794,0,1,0-1.587,0v8.05a3.171,3.171,0,0,0-2.268,2.268H18.794a.794.794,0,1,0,0,1.587h5.668a3.168,3.168,0,1,0,3.856-3.856Zm-.794,4.649a1.587,1.587,0,1,1,1.587-1.587A1.589,1.589,0,0,1,27.524,28.372Z" transform="translate(-3.714 -3.07)" fill="#88ce36"/>
                                        <path id="Tracé_330" data-name="Tracé 330" d="M29.794,9.26a.793.793,0,0,0,.794-.794V7.673a.794.794,0,0,0-1.587,0v.794A.793.793,0,0,0,29.794,9.26Z" transform="translate(-5.983 -1.419)" fill="#88ce36"/>
                                        <path id="Tracé_331" data-name="Tracé 331" d="M29.794,49.879a.793.793,0,0,0-.794.794v.794a.794.794,0,1,0,1.587,0v-.794A.793.793,0,0,0,29.794,49.879Z" transform="translate(-5.983 -10.291)" fill="#88ce36"/>
                                        <path id="Tracé_332" data-name="Tracé 332" d="M51.587,28.879h-.794a.794.794,0,0,0,0,1.587h.794a.794.794,0,1,0,0-1.587Z" transform="translate(-10.316 -5.958)" fill="#88ce36"/>
                                        <path id="Tracé_333" data-name="Tracé 333" d="M8.587,28.879H7.794a.794.794,0,1,0,0,1.587h.794a.794.794,0,1,0,0-1.587Z" transform="translate(-1.444 -5.958)" fill="#88ce36"/>
                                        <path id="Tracé_334" data-name="Tracé 334" d="M44.643,13.555l-.561.561A.794.794,0,1,0,45.2,15.238l.561-.561a.794.794,0,0,0-1.122-1.122Z" transform="translate(-9.047 -2.749)" fill="#88ce36"/>
                                        <path id="Tracé_335" data-name="Tracé 335" d="M14.238,43.961l-.561.561A.794.794,0,1,0,14.8,45.644l.561-.561a.794.794,0,0,0-1.122-1.122Z" transform="translate(-2.774 -9.022)" fill="#88ce36"/>
                                        <path id="Tracé_336" data-name="Tracé 336" d="M45.2,43.961a.794.794,0,1,0-1.122,1.122l.561.561a.794.794,0,0,0,1.122-1.122Z" transform="translate(-9.047 -9.022)" fill="#88ce36"/>
                                        <path id="Tracé_337" data-name="Tracé 337" d="M14.8,13.554a.794.794,0,1,0-1.122,1.122l.561.561a.794.794,0,0,0,1.122-1.122Z" transform="translate(-2.774 -2.748)" fill="#88ce36"/>
                                      </svg>