<svg xmlns="http://www.w3.org/2000/svg" width="26.52" height="26.52" viewBox="0 0 26.52 26.52">
  <path id="Icon" d="M20.926,7.666a7.666,7.666,0,1,0-12,6.317A13.28,13.28,0,0,0,0,26.52H2.072A11.2,11.2,0,0,1,13.26,15.332,7.675,7.675,0,0,0,20.926,7.666ZM13.26,13.26a5.594,5.594,0,1,1,5.594-5.594A5.6,5.6,0,0,1,13.26,13.26ZM16.678,20.3H26.52v2.072H16.678ZM26.52,16.16v2.072H16.678V16.16Zm-9.841,8.287H26.52V26.52H16.678Zm0,0" fill="#88ce36"/>
</svg>
