<svg xmlns="http://www.w3.org/2000/svg" width="19.349" height="12.332" viewBox="0 0 19.349 12.332">
  <g id="view" transform="translate(0 0)">
    <g id="Groupe_264" data-name="Groupe 264" transform="translate(0 0)">
      <g id="Groupe_263" data-name="Groupe 263">
        <path id="Tracé_1605" data-name="Tracé 1605" d="M19.226,98.625c-.173-.236-4.291-5.79-9.552-5.79S.3,98.388.123,98.625a.639.639,0,0,0,0,.753c.173.236,4.291,5.79,9.552,5.79s9.379-5.553,9.552-5.79A.638.638,0,0,0,19.226,98.625Zm-9.552,5.267c-3.875,0-7.231-3.686-8.224-4.891.992-1.206,4.341-4.89,8.224-4.89S16.9,97.8,17.9,99C16.906,100.208,13.557,103.892,9.674,103.892Z" transform="translate(0 -92.835)" fill="#915fef"/>
      </g>
    </g>
    <g id="Groupe_266" data-name="Groupe 266" transform="translate(5.847 2.339)">
      <g id="Groupe_265" data-name="Groupe 265" transform="translate(0 0)">
        <path id="Tracé_1606" data-name="Tracé 1606" d="M158.549,154.725a3.827,3.827,0,1,0,3.827,3.827A3.832,3.832,0,0,0,158.549,154.725Zm0,6.379a2.551,2.551,0,1,1,2.551-2.551A2.554,2.554,0,0,1,158.549,161.1Z" transform="translate(-154.722 -154.725)" fill="#915fef"/>
      </g>
    </g>
  </g>
</svg>
