<svg id="visa" xmlns="http://www.w3.org/2000/svg" width="39.681" height="45.786" viewBox="0 0 39.681 45.786">
                                    <path id="Tracé_250" data-name="Tracé 250" d="M37.67,22.092l-7.926-7.927A3.861,3.861,0,0,0,29,13.6V.763A.763.763,0,0,0,28.235,0H3.816A3.82,3.82,0,0,0,0,3.816V34.34a3.82,3.82,0,0,0,3.816,3.816H22.169a8.4,8.4,0,0,0,8.355,7.631h8.394a.763.763,0,0,0,.763-.763V26.947A6.822,6.822,0,0,0,37.67,22.092ZM1.526,34.34V3.816A2.289,2.289,0,0,1,3.816,1.526H27.472V30.208L22.114,24.85a3.816,3.816,0,1,0-5.391,5.4l.915.92c.006.005.007.013.012.018s.012.007.018.012l3.789,3.794a2.277,2.277,0,0,1,.672,1.616l-18.314.019A2.289,2.289,0,0,1,1.526,34.34ZM17.8,29.167a2.28,2.28,0,0,1,0-3.238,2.338,2.338,0,0,1,3.232,0l.4.4-3.236,3.236ZM38.155,44.26H30.524a6.875,6.875,0,0,1-6.868-6.868V36.61a3.8,3.8,0,0,0-1.116-2.7l-3.266-3.271,3.237-3.237,7.473,7.473A.763.763,0,0,0,31.064,33.8L29,31.734V15.579l7.593,7.592a5.311,5.311,0,0,1,1.564,3.777Zm0,0" transform="translate(0 0)" fill="#88ce36"/>
                                    <path id="Tracé_251" data-name="Tracé 251" d="M32.763,38.1a.763.763,0,0,0,.763-.763V34.289a.763.763,0,0,1,.763-.763h3.052a.763.763,0,1,0,0-1.526H34.289A2.289,2.289,0,0,0,32,34.289v3.052A.763.763,0,0,0,32.763,38.1Zm0,0" transform="translate(-28.948 -28.948)" fill="#88ce36"/>
                                    <path id="Tracé_252" data-name="Tracé 252" d="M37.342,308.579H34.289a.763.763,0,0,1-.763-.763v-3.052a.763.763,0,1,0-1.526,0v3.052a2.289,2.289,0,0,0,2.289,2.289h3.052a.763.763,0,0,0,0-1.526Zm0,0" transform="translate(-28.948 -275.002)" fill="#88ce36"/>
                                    <path id="Tracé_253" data-name="Tracé 253" d="M87.262,63.631a7.631,7.631,0,1,0-7.631,7.631A7.631,7.631,0,0,0,87.262,63.631Zm-1.579-.763h-1.5A10.639,10.639,0,0,0,83.1,58.617,6.1,6.1,0,0,1,85.683,62.868Zm-6.815-5.113v5.113H76.605C76.774,60.286,77.779,58.381,78.868,57.755Zm0,6.639v5.113c-1.089-.628-2.094-2.533-2.262-5.113Zm1.526,5.113V64.394h2.262C82.488,66.976,81.483,68.881,80.394,69.507Zm0-6.639V57.755c1.089.628,2.094,2.533,2.262,5.113Zm-4.236-4.251a10.639,10.639,0,0,0-1.084,4.251h-1.5A6.1,6.1,0,0,1,76.158,58.617Zm-2.58,5.777h1.5a10.639,10.639,0,0,0,1.084,4.251A6.1,6.1,0,0,1,73.579,64.394ZM83.1,68.645a10.639,10.639,0,0,0,1.084-4.251h1.5A6.1,6.1,0,0,1,83.1,68.645Zm0,0" transform="translate(-65.132 -50.658)" fill="#88ce36"/>
                                  </svg>