<svg id="word" xmlns="http://www.w3.org/2000/svg" width="31.912" height="30.587" viewBox="0 0 31.912 30.587">
  <g id="Groupe_21" data-name="Groupe 21">
    <path id="Tracé_45" data-name="Tracé 45" d="M18.365,10.775a.665.665,0,0,0-.564-.133L.515,14.631A.665.665,0,0,0,0,15.285v22.6a.665.665,0,0,0,.564.657L17.849,41.2a.665.665,0,0,0,.766-.657V11.3A.664.664,0,0,0,18.365,10.775Z" transform="translate(0 -10.626)" fill="#1565c0"/>
    <path id="Tracé_46" data-name="Tracé 46" d="M291.294,78.64H278a.665.665,0,1,1,0-1.33h12.632v-22.6H278a.665.665,0,1,1,0-1.33h13.3a.665.665,0,0,1,.665.665V77.975A.665.665,0,0,1,291.294,78.64Z" transform="translate(-260.048 -50.712)" fill="#1565c0"/>
  </g>
  <path id="Tracé_47" data-name="Tracé 47" d="M51.216,191.741a.665.665,0,0,1-.638-.481l-2.021-7.071-2.021,7.071a.691.691,0,0,1-1.278,0L42.6,181.952a.665.665,0,1,1,1.267-.4c0,.012.007.025.011.037l2.021,7.07,2.021-7.071a.691.691,0,0,1,1.278,0l2.02,7.071,2.021-7.07a.657.657,0,0,1,.807-.46l.015,0a.665.665,0,0,1,.456.822l-2.659,9.308A.665.665,0,0,1,51.216,191.741Z" transform="translate(-39.914 -170.461)" fill="#fafafa"/>
  <g id="Groupe_22" data-name="Groupe 22" transform="translate(17.285 6.653)">
    <path id="Tracé_48" data-name="Tracé 48" d="M288.635,118.706H278a.665.665,0,1,1,0-1.33h10.637a.665.665,0,1,1,0,1.33Z" transform="translate(-277.333 -117.376)" fill="#1565c0"/>
    <path id="Tracé_49" data-name="Tracé 49" d="M288.635,182.706H278a.665.665,0,1,1,0-1.33h10.637a.665.665,0,1,1,0,1.33Z" transform="translate(-277.333 -177.387)" fill="#1565c0"/>
    <path id="Tracé_50" data-name="Tracé 50" d="M288.635,246.706H278a.665.665,0,1,1,0-1.33h10.637a.665.665,0,1,1,0,1.33Z" transform="translate(-277.333 -237.398)" fill="#1565c0"/>
    <path id="Tracé_51" data-name="Tracé 51" d="M288.635,310.706H278a.665.665,0,0,1,0-1.33h10.637a.665.665,0,0,1,0,1.33Z" transform="translate(-277.333 -297.409)" fill="#1565c0"/>
    <path id="Tracé_52" data-name="Tracé 52" d="M288.635,374.706H278a.665.665,0,1,1,0-1.33h10.637a.665.665,0,1,1,0,1.33Z" transform="translate(-277.333 -357.42)" fill="#1565c0"/>
  </g>
</svg>
