<svg xmlns="http://www.w3.org/2000/svg" width="28.604" height="24.505" viewBox="0 0 28.604 24.505">
  <g id="accident" transform="translate(0 -22.562)">
    <g id="Groupe_240" data-name="Groupe 240" transform="translate(0 46.113)">
      <g id="Groupe_239" data-name="Groupe 239">
        <path id="Tracé_1553" data-name="Tracé 1553" d="M28.127,443.97H.477a.477.477,0,0,0,0,.953h27.65a.477.477,0,0,0,0-.953Z" transform="translate(0 -443.97)" fill="#88ce36"/>
      </g>
    </g>
    <g id="Groupe_244" data-name="Groupe 244" transform="translate(2.858 22.562)">
      <g id="Groupe_243" data-name="Groupe 243">
        <path id="Tracé_1555" data-name="Tracé 1555" d="M68.883,59.461l-4.849-4.848a.477.477,0,0,0-.674,0l-3.479,3.476L56.7,54.9a4.3,4.3,0,0,0,3.662-4.245v-.082a1.43,1.43,0,0,0-2.86,0,1.514,1.514,0,0,1-1.512,1.512,7.187,7.187,0,0,0-2.454.437,2.86,2.86,0,1,0-2.9,1.937l-.146.15a5.2,5.2,0,0,0,0,7.348l.181.181a1.487,1.487,0,0,0,2.1-2.105l-.181-.181a2.224,2.224,0,0,1-.3-2.765l6.63,6.627H55.114a.477.477,0,0,0,0,.953h4.758l.486.486v4.281a1.9,1.9,0,0,0,.258.953H57.5a.477.477,0,0,0,0,.953h4.767a1.907,1.907,0,0,0,1.907-1.907V63.527a.477.477,0,0,0-.14-.337l-2.047-2.047,1.71-1.707,2.607,2.6a1.825,1.825,0,1,0,2.581-2.581ZM48.916,51.611a1.907,1.907,0,1,1,1.907,1.907A1.907,1.907,0,0,1,48.916,51.611ZM68.2,61.368a.866.866,0,0,1-1.225,0l-2.942-2.939a.477.477,0,0,0-.674,0L60.977,60.81a.477.477,0,0,0,0,.674l2.241,2.244v5.711a.953.953,0,1,1-1.907,0V64.957a.477.477,0,0,0-.14-.337L52.59,56.039a.477.477,0,0,0-.674,0,3.176,3.176,0,0,0,0,4.488l.181.181a.535.535,0,0,1-.756.756l-.181-.181a4.243,4.243,0,0,1,0-6l.419-.419a6.19,6.19,0,0,1,4.406-1.825,2.468,2.468,0,0,0,2.466-2.463.477.477,0,1,1,.953,0v.082A3.341,3.341,0,0,1,56.067,54a.477.477,0,0,0-.477.477v.477a.477.477,0,0,0,.14.337L59.544,59.1a.477.477,0,0,0,.674,0l3.477-3.476,4.512,4.512A.872.872,0,0,1,68.2,61.368Z" transform="translate(-47.96 -48.747)" fill="#88ce36"/>
      </g>
    </g>
    <g id="Groupe_246" data-name="Groupe 246" transform="translate(9.058 44.206)">
      <g id="Groupe_245" data-name="Groupe 245">
        <path id="Tracé_1556" data-name="Tracé 1556" d="M153.43,411.97h-.953a.477.477,0,0,0,0,.953h.953a.477.477,0,0,0,0-.953Z" transform="translate(-152 -411.97)" fill="#88ce36"/>
      </g>
    </g>
    <g id="Groupe_248" data-name="Groupe 248" transform="translate(6.674 37.532)">
      <g id="Groupe_247" data-name="Groupe 247">
        <path id="Tracé_1557" data-name="Tracé 1557" d="M113.43,299.97h-.953a.477.477,0,0,0,0,.953h.953a.477.477,0,0,0,0-.953Z" transform="translate(-112 -299.97)" fill="#88ce36"/>
      </g>
    </g>
  </g>
</svg>
